…
Let's now take a look at our processed data.


```r
stormData
```

```
## # A tibble: 254,633 × 6
##     Year EventType Fatalities Injuries PropertyDamage CropDamage
##    <dbl>    <fctr>      <dbl>    <dbl>          <dbl>      <dbl>
## 1   1950   TORNADO          0       15          25000          0
## 2   1950   TORNADO          0        0           2500          0
## 3   1951   TORNADO          0        2          25000          0
## 4   1951   TORNADO          0        2           2500          0
## 5   1951   TORNADO          0        2           2500          0
## 6   1951   TORNADO          0        6           2500          0
## 7   1951   TORNADO          0        1           2500          0
## 8   1952   TORNADO          0        0           2500          0
## 9   1952   TORNADO          1       14          25000          0
## 10  1952   TORNADO          0        0          25000          0
## # ... with 254,623 more rows
```
